{
  "project_info": {
    "project_number": "869092405730",
    "firebase_url": "https://shoppingapp-5d6de.firebaseio.com",
    "project_id": "shoppingapp-5d6de",
    "storage_bucket": "shoppingapp-5d6de.appspot.com"
  },
  "client": [
    {
      "client_info": {
        "mobilesdk_app_id": "1:869092405730:android:12e1540a7cf1e111e389bb",
        "android_client_info": {
          "package_name": "com.shoppinglist"
        }
      },
      "oauth_client": [
        {
          "client_id": "869092405730-soqke4pbsodad4t2g1tdph2ndk2u9b0p.apps.googleusercontent.com",
          "client_type": 1,
          "android_info": {
            "package_name": "com.shoppinglist",
            "certificate_hash": "cfeec591952ed30cdf8903ceff8ab35a7c3efded"
          }
        },
        {
          "client_id": "869092405730-prcrqevfjjiumva65m11idh2j007b0cu.apps.googleusercontent.com",
          "client_type": 3
        }
      ],
      "api_key": [
        {
          "current_key": "AIzaSyAK19Ge1KQ7aG48KY3qc48-d-vgVfilnAs"
        }
      ],
      "services": {
        "appinvite_service": {
          "other_platform_oauth_client": [
            {
              "client_id": "869092405730-prcrqevfjjiumva65m11idh2j007b0cu.apps.googleusercontent.com",
              "client_type": 3
            }
          ]
        }
      }
    }
  ],
  "configuration_version": "1"
}